Name,Sex,Equipment,Event,Division,BodyweightKg,WeightClassKg,Squat1Kg,Squat2Kg,Squat3Kg,Best3SquatKg,Bench1Kg,Bench2Kg,Bench3Kg,Best3BenchKg,Deadlift1Kg,Deadlift2Kg,Deadlift3Kg,Best3DeadliftKg,TotalKg,Place,State
Douglas Graham,M,Raw,SBD,M-C-M3,72.7,74,90,100,-110,100,70,75,77.5,77.5,142.5,152.5,160,160,337.5,1,SE
Peter Cardona,M,Raw,SBD,M-C-M2,72.8,74,-120,140,-150,140,90,97.5,-100,97.5,140,167.5,172.5,172.5,410,1,SE
David Richardson,M,Raw,SBD,M-C-M2,66.3,74,60,-80,,60,60,80,-100,80,180,190,205,205,345,2,SE
Mark Macey,M,Raw,SBD,M-C-M2,92.9,93,165,175,-190,175,115,125,-130,125,180,195,-205,195,495,1,SE
Steve Porter,M,Raw,SBD,M-C-M2,111.2,120,185,200,210,210,130,140,-145,140,190,205,-215,205,555,1,SE
Toby Eves,M,Raw,SBD,M-C-M2,110.1,120,130,140,150,150,100,105,110,110,170,-180,-180,170,430,2,SE
Terry Vine,M,Raw,SBD,M-C-M1,68.8,74,65,75,85,85,50,60,-70,60,60,70,80,80,225,1,SE
Russ Kirby,M,Raw,SBD,M-C-M1,104.3,105,250,260,270,270,165,172.5,177.5,177.5,255,265,275,275,722.5,1,SE
Serge Licis,M,Raw,SBD,M-C-M1,98.8,105,200,210,-220,210,127.5,132.5,-135,132.5,240,250,-260,250,592.5,2,SE
Keith Purcell,M,Raw,SBD,M-C-M1,96.2,105,80,90,110,110,70,80,90,90,135,155,-175,155,355,3,SE
Dave Hill,M,Raw,SBD,M-C-M1,116.3,120,-190,200,210,210,125,-132.5,,125,190,225,-230,225,560,1,SE
Nicholas Grundy,M,Raw,SBD,M-C-M1,117.5,120,180,-190,190,190,-130,130,137.5,137.5,180,200,,200,527.5,2,SE
Julie Briggs,F,Raw,SBD,F-C-M2,67,72,-62.5,-65,65,65,32.5,37.5,-45,37.5,85,92.5,100,100,202.5,1,SE
Betty Gray,F,Raw,SBD,F-C-M2,97.6,84+,82.5,87.5,-92.5,87.5,45,52.5,55,55,150,160,162.5,162.5,305,1,SE
Khrys Kyriacou,F,Raw,SBD,F-C-M1,62.9,63,-120,120,127.5,127.5,70,77.5,-80,77.5,125,137.5,142.5,142.5,347.5,1,SE
Rosie Howard,F,Raw,SBD,F-C-U23,68.3,72,95,105,-110,105,50,-55,-55,50,120,140,-150,140,295,1,SE
Rebecca Heath #1,F,Raw,SBD,F-C-Open,45.9,47,87.5,92.5,95,95,52.5,55,57.5,57.5,107.5,117.5,,117.5,270,1,SE
Louise Richardson,F,Raw,SBD,F-C-Open,67.9,72,140,145,152.5,152.5,65,70,-72.5,70,155,160,-165,160,382.5,1,SE
Hannah Yardy,F,Raw,SBD,F-C-Open,62.1,63,92.5,-97.5,97.5,97.5,55,-60,-60,55,127.5,137.5,142.5,142.5,295,1,SE
Tabetha Michell,F,Raw,SBD,F-C-Open,64.3,72,87.5,95,100,100,60,-62.5,-62.5,60,117.5,125,130,130,290,4,SE
Leanne Poingdestre,F,Raw,SBD,F-C-Open,70.4,72,115,125,132.5,132.5,55,60,-65,60,120,135,140,140,332.5,2,SE
Claire Pontet-Piccolomini,F,Raw,SBD,F-C-Open,66.4,72,95,-100,100,100,55,60,-65,60,120,130,135,135,295,3,SE
Emma Thorp,F,Raw,SBD,F-C-Open,89.7,84+,-115,117.5,122.5,122.5,50,55,-57.5,55,135,150,-155,150,327.5,1,SE
Aidan Bell,M,Raw,SBD,M-C-U23,57.3,59,110,-120,130,130,75,80,85,85,130,145,160,160,375,1,SE
Benjamin Du Parc Braham,M,Raw,SBD,M-C-U23,63.9,66,117.5,125,-130,125,82.5,87.5,-90,87.5,180,190,200,200,412.5,1,SE
Kieron Pilcher,M,Raw,SBD,M-C-U23,62.9,66,60,70,75,75,50,-60,62.5,62.5,110,120,130,130,267.5,2,SE
Harvey David Robinson,M,Raw,SBD,M-C-U23,101.4,105,235,245,250,250,150,155,160,160,285,295,300,300,710,1,SE
Charlie Wade,M,Raw,SBD,M-C-U23,103,105,220,240,-260,240,150,155,,155,240,260,,260,655,2,SE
Matthew Ward,M,Raw,SBD,M-C-U23,102.9,105,170,182.5,190,190,105,110,112.5,112.5,200,210,215,215,517.5,3,SE
Rory Eves,M,Raw,SBD,M-C-U23,95.1,105,130,140,150,150,95,100,105,105,170,185,200,200,455,4,SE
Kyran Harding,M,Raw,SBD,M-C-U23,104.9,105,155,165,170,170,-85,85,92.5,92.5,100,,,100,362.5,5,SE
Frankie Park,M,Raw,SBD,M-C-U23,104.2,105,220,240,-260,240,-145,-150,-150,,,,,,,DQ,SE
David Cridland,M,Raw,SBD,M-C-U23,119.4,120,172.5,,,172.5,120,127.5,132.5,132.5,170,,,170,475,3,SE
Daniel Fletcher,M,Raw,SBD,M-C-U23,119.9,120,180,190,-200,190,110,120,-130,120,210,220,240,240,550,1,SE
Cameron Keyes,M,Raw,SBD,M-C-U23,112.3,120,180,-190,-190,180,110,-115,-115,110,210,220,,220,510,2,SE
Luis Corbo,M,Raw,SBD,M-C-U18,57.9,59,75,80,82.5,82.5,-40,40,45,45,110,115,-120,115,242.5,1,SE
Lucas Sedgwick,M,Raw,SBD,M-C-U18,62.4,66,80,85,90,90,47.5,52.5,55,55,95,102.5,110,110,255,1,SE
Charlie Hale,M,Raw,SBD,M-C-U18,80.4,83,160,170,177.5,177.5,97.5,102.5,-107.5,102.5,190,205,215,215,495,1,SE
George Lipscombe,M,Raw,SBD,M-C-U18,82.8,83,190,-200,-200,190,100,105,-115,105,190,200,-210,200,495,2,SE
Bradley May,M,Raw,SBD,M-C-U18,102.3,105,142.5,-155,155,155,95,102.5,110,110,155,170,185,185,450,1,SE
Luke Smith,M,Raw,SBD,M-C-Open,66.4,74,135,145,-155,145,102.5,-107.5,-107.5,102.5,160,-170,170,170,417.5,1,SE
Thomas Forrest,M,Raw,SBD,M-C-Open,81.9,83,165,175,180,180,130,135,140,140,200,220,230,230,550,1,SE
James West #8,M,Raw,SBD,M-C-Open,82.1,83,140,150,165,165,110,120,130,130,150,170,190,190,485,2,SE
Elliott Giles,M,Raw,SBD,M-C-Open,82.5,83,165,-172.5,-172.5,165,105,-112.5,-115,105,185,195,-202.5,195,465,3,SE
Mark Thorne,M,Raw,SBD,M-C-Open,77.8,83,140,147.5,-155,147.5,102.5,-107.5,107.5,107.5,190,200,205,205,460,4,SE
Drew Blackman,M,Raw,SBD,M-C-Open,92.4,93,175,190,-205,190,120,130,-135,130,190,210,217.5,217.5,537.5,1,SE
Simon Billingham,M,Raw,SBD,M-C-Open,89.9,93,170,-185,185,185,105,110,-120,110,200,220,-242.5,220,515,2,SE
David Downs,M,Raw,SBD,M-C-Open,100.7,105,195,205,215,215,130,137.5,-142.5,137.5,235,245,255,255,607.5,1,SE
Joseph Buckton,M,Raw,SBD,M-C-Open,103.7,105,185,202.5,-207.5,202.5,130,142.5,-145,142.5,190,205,-207.5,205,550,2,SE
David Shepherd #2,M,Raw,SBD,M-C-Open,104.6,105,210,-220,-225,210,105,-110,-110,105,205,215,-220,215,530,3,SE
Ben Rodgers,M,Raw,SBD,M-C-Open,102,105,130,142.5,152.5,152.5,112.5,117.5,-122.5,117.5,175,185,195,195,465,4,SE
Calum Nicholls,M,Raw,SBD,M-C-Open,122.4,120+,220,-230,-230,220,165,175,-180,175,280,-290,290,290,685,1,SE
